%YAML 1.1
%TAG !u! tag:unity3d.com,2011:
--- !u!114 &11400000
MonoBehaviour:
  m_ObjectHideFlags: 0
  m_PrefabParentObject: {fileID: 0}
  m_PrefabInternal: {fileID: 0}
  m_GameObject: {fileID: 0}
  m_Enabled: 1
  m_EditorHideFlags: 0
  m_Script: {fileID: 11500000, guid: 6954629b4dc2feb4cad681458128da0f, type: 3}
  m_Name: DemoScriptableObject01
  m_EditorClassIdentifier: 
  objectName: First Object
  isCool: 1
  speed: 51.5
